TBS_1052B/RiseTimes/TEK_NoGain_rise.CSV

Record Length,2.500000e+03,,  -0.000004600000,  -0.33400,
Sample Interval,1.000000e-08,,  -0.000004590000,  -0.33400,
Trigger Point,4.600000000000e+02,,  -0.000004580000,  -0.33600,
,,,  -0.000004570000,  -0.33200,
,,,  -0.000004560000,  -0.33400,
,,,  -0.000004550000,  -0.33600,
Source,CH1,,  -0.000004540000,  -0.33400,
Vertical Units,V,,  -0.000004530000,  -0.33600,
Vertical Scale,5.000000e-02,,  -0.000004520000,  -0.33400,
Vertical Offset,4.580000e-01,,  -0.000004510000,  -0.33600,
Horizontal Units,s,,  -0.000004500000,  -0.33600,
Horizontal Scale,2.500000e-06,,  -0.000004490000,  -0.33400,
Pt Fmt,Y,,  -0.000004480000,  -0.33600,
Yzero,0.000000e+00,,  -0.000004470000,  -0.33800,
Probe Atten,1.000000e+00,,  -0.000004460000,  -0.33400,
Model Number,TBS1052B-EDU,,  -0.000004450000,  -0.33400,
Serial Number,C053175,,  -0.000004440000,  -0.33800,
Firmware Version,FV:v4.06,,  -0.000004430000,  -0.33400,
,,,-00.000004420000,  -0.33600,
,,,-00.000004410000,  -0.33800,
,,,-00.000004400000,  -0.33400,
,,,-00.000004390000,  -0.33600,
,,,-00.000004380000,  -0.33400,
,,,-00.000004370000,  -0.33200,
,,,-00.000004360000,  -0.33600,
,,,-00.000004350000,  -0.33400,
,,,-00.000004340000,  -0.33600,
,,,-00.000004330000,  -0.33600,
,,,-00.000004320000,  -0.33400,
,,,-00.000004310000,  -0.33400,
,,,-00.000004300000,  -0.33600,
,,,-00.000004290000,  -0.33400,
,,,-00.000004280000,  -0.33600,
,,,-00.000004270000,  -0.33400,
,,,-00.000004260000,  -0.33400,
,,,-00.000004250000,  -0.33600,
,,,-00.000004240000,  -0.33400,
,,,-00.000004230000,  -0.33400,
,,,-00.000004220000,  -0.33200,
,,,-00.000004210000,  -0.33600,
,,,-00.000004200000,  -0.33600,
,,,-00.000004190000,  -0.33200,
,,,-00.000004180000,  -0.33600,
,,,-00.000004170000,  -0.33600,
,,,-00.000004160000,  -0.33600,
,,,-00.000004150000,  -0.33600,
,,,-00.000004140000,  -0.33400,
,,,-00.000004130000,  -0.33400,
,,,-00.000004120000,  -0.33400,
,,,-00.000004110000,  -0.33400,
,,,-00.000004100000,  -0.33800,
,,,-00.000004090000,  -0.33600,
,,,-00.000004080000,  -0.33400,
,,,-00.000004070000,  -0.33400,
,,,-00.000004060000,  -0.33600,
,,,-00.000004050000,  -0.33400,
,,,-00.000004040000,  -0.33400,
,,,-00.000004030000,  -0.33400,
,,,-00.000004020000,  -0.33600,
,,,-00.000004010000,  -0.33400,
,,,-00.000004000000,  -0.33400,
,,,-00.000003990000,  -0.33400,
,,,-00.000003980000,  -0.33400,
,,,-00.000003970000,  -0.33600,
,,,-00.000003960000,  -0.33800,
,,,-00.000003950000,  -0.33600,
,,,-00.000003940000,  -0.33400,
,,,-00.000003930000,  -0.33600,
,,,-00.000003920000,  -0.33800,
,,,-00.000003910000,  -0.33200,
,,,-00.000003900000,  -0.33400,
,,,-00.000003890000,  -0.33400,
,,,-00.000003880000,  -0.33400,
,,,-00.000003870000,  -0.33400,
,,,-00.000003860000,  -0.33400,
,,,-00.000003850000,  -0.33800,
,,,-00.000003840000,  -0.33200,
,,,-00.000003830000,  -0.33200,
,,,-00.000003820000,  -0.33400,
,,,-00.000003810000,  -0.33400,
,,,-00.000003800000,  -0.33200,
,,,-00.000003790000,  -0.33400,
,,,-00.000003780000,  -0.33600,
,,,-00.000003770000,  -0.33400,
,,,-00.000003760000,  -0.33800,
,,,-00.000003750000,  -0.33600,
,,,-00.000003740000,  -0.33400,
,,,-00.000003730000,  -0.33200,
,,,-00.000003720000,  -0.33400,
,,,-00.000003710000,  -0.33600,
,,,-00.000003700000,  -0.33400,
,,,-00.000003690000,  -0.33400,
,,,-00.000003680000,  -0.33600,
,,,-00.000003670000,  -0.33400,
,,,-00.000003660000,  -0.33400,
,,,-00.000003650000,  -0.33400,
,,,-00.000003640000,  -0.33400,
,,,-00.000003630000,  -0.33400,
,,,-00.000003620000,  -0.33400,
,,,-00.000003610000,  -0.33800,
,,,-00.000003600000,  -0.33600,
,,,-00.000003590000,  -0.33600,
,,,-00.000003580000,  -0.33400,
,,,-00.000003570000,  -0.33400,
,,,-00.000003560000,  -0.33400,
,,,-00.000003550000,  -0.33400,
,,,-00.000003540000,  -0.33800,
,,,-00.000003530000,  -0.33400,
,,,-00.000003520000,  -0.33400,
,,,-00.000003510000,  -0.33400,
,,,-00.000003500000,  -0.33400,
,,,-00.000003490000,  -0.33400,
,,,-00.000003480000,  -0.33400,
,,,-00.000003470000,  -0.33400,
,,,-00.000003460000,  -0.33200,
,,,-00.000003450000,  -0.33200,
,,,-00.000003440000,  -0.33400,
,,,-00.000003430000,  -0.33400,
,,,-00.000003420000,  -0.33400,
,,,-00.000003410000,  -0.33800,
,,,-00.000003400000,  -0.33800,
,,,-00.000003390000,  -0.33400,
,,,-00.000003380000,  -0.33400,
,,,-00.000003370000,  -0.33600,
,,,-00.000003360000,  -0.33600,
,,,-00.000003350000,  -0.33400,
,,,-00.000003340000,  -0.33600,
,,,-00.000003330000,  -0.33600,
,,,-00.000003320000,  -0.33400,
,,,-00.000003310000,  -0.33600,
,,,-00.000003300000,  -0.33600,
,,,-00.000003290000,  -0.33400,
,,,-00.000003280000,  -0.33400,
,,,-00.000003270000,  -0.33400,
,,,-00.000003260000,  -0.33600,
,,,-00.000003250000,  -0.33400,
,,,-00.000003240000,  -0.33400,
,,,-00.000003230000,  -0.33800,
,,,-00.000003220000,  -0.33200,
,,,-00.000003210000,  -0.33600,
,,,-00.000003200000,  -0.33400,
,,,-00.000003190000,  -0.33600,
,,,-00.000003180000,  -0.33400,
,,,-00.000003170000,  -0.33600,
,,,-00.000003160000,  -0.33600,
,,,-00.000003150000,  -0.33600,
,,,-00.000003140000,  -0.34200,
,,,-00.000003130000,  -0.34200,
,,,-00.000003120000,  -0.34400,
,,,-00.000003110000,  -0.34800,
,,,-00.000003100000,  -0.35000,
,,,-00.000003090000,  -0.35000,
,,,-00.000003080000,  -0.35400,
,,,-00.000003070000,  -0.35600,
,,,-00.000003060000,  -0.35800,
,,,-00.000003050000,  -0.36000,
,,,-00.000003040000,  -0.36000,
,,,-00.000003030000,  -0.36400,
,,,-00.000003020000,  -0.36400,
,,,-00.000003010000,  -0.36400,
,,,-00.000003000000,  -0.36800,
,,,-00.000002990000,  -0.37000,
,,,-00.000002980000,  -0.36800,
,,,-00.000002970000,  -0.36800,
,,,-00.000002960000,  -0.37000,
,,,-00.000002950000,  -0.37200,
,,,-00.000002940000,  -0.37000,
,,,-00.000002930000,  -0.37200,
,,,-00.000002920000,  -0.37600,
,,,-00.000002910000,  -0.37200,
,,,-00.000002900000,  -0.37000,
,,,-00.000002890000,  -0.37600,
,,,-00.000002880000,  -0.37800,
,,,-00.000002870000,  -0.37200,
,,,-00.000002860000,  -0.37600,
,,,-00.000002850000,  -0.38000,
,,,-00.000002840000,  -0.38400,
,,,-00.000002830000,  -0.38200,
,,,-00.000002820000,  -0.37800,
,,,-00.000002810000,  -0.38400,
,,,-00.000002800000,  -0.38400,
,,,-00.000002790000,  -0.38200,
,,,-00.000002780000,  -0.38800,
,,,-00.000002770000,  -0.38800,
,,,-00.000002760000,  -0.39600,
,,,-00.000002750000,  -0.39600,
,,,-00.000002740000,  -0.39000,
,,,-00.000002730000,  -0.39000,
,,,-00.000002720000,  -0.39400,
,,,-00.000002710000,  -0.39400,
,,,-00.000002700000,  -0.39200,
,,,-00.000002690000,  -0.39200,
,,,-00.000002680000,  -0.39600,
,,,-00.000002670000,  -0.39800,
,,,-00.000002660000,  -0.39200,
,,,-00.000002650000,  -0.39000,
,,,-00.000002640000,  -0.39200,
,,,-00.000002630000,  -0.39400,
,,,-00.000002620000,  -0.39600,
,,,-00.000002610000,  -0.39800,
,,,-00.000002600000,  -0.40200,
,,,-00.000002590000,  -0.40400,
,,,-00.000002580000,  -0.40400,
,,,-00.000002570000,  -0.40600,
,,,-00.000002560000,  -0.40400,
,,,-00.000002550000,  -0.40600,
,,,-00.000002540000,  -0.40800,
,,,-00.000002530000,  -0.41000,
,,,-00.000002520000,  -0.41000,
,,,-00.000002510000,  -0.40800,
,,,-00.000002500000,  -0.41000,
,,,-00.000002490000,  -0.40800,
,,,-00.000002480000,  -0.40600,
,,,-00.000002470000,  -0.40600,
,,,-00.000002460000,  -0.40800,
,,,-00.000002450000,  -0.40800,
,,,-00.000002440000,  -0.40800,
,,,-00.000002430000,  -0.40800,
,,,-00.000002420000,  -0.41200,
,,,-00.000002410000,  -0.40800,
,,,-00.000002400000,  -0.41200,
,,,-00.000002390000,  -0.41200,
,,,-00.000002380000,  -0.41400,
,,,-00.000002370000,  -0.41600,
,,,-00.000002360000,  -0.42000,
,,,-00.000002350000,  -0.42200,
,,,-00.000002340000,  -0.42000,
,,,-00.000002330000,  -0.41800,
,,,-00.000002320000,  -0.42200,
,,,-00.000002310000,  -0.42000,
,,,-00.000002300000,  -0.42200,
,,,-00.000002290000,  -0.42000,
,,,-00.000002280000,  -0.42000,
,,,-00.000002270000,  -0.41800,
,,,-00.000002260000,  -0.42000,
,,,-00.000002250000,  -0.42000,
,,,-00.000002240000,  -0.41800,
,,,-00.000002230000,  -0.42200,
,,,-00.000002220000,  -0.42000,
,,,-00.000002210000,  -0.42200,
,,,-00.000002200000,  -0.42200,
,,,-00.000002190000,  -0.42200,
,,,-00.000002180000,  -0.42600,
,,,-00.000002170000,  -0.42600,
,,,-00.000002160000,  -0.42600,
,,,-00.000002150000,  -0.43000,
,,,-00.000002140000,  -0.42600,
,,,-00.000002130000,  -0.43000,
,,,-00.000002120000,  -0.43000,
,,,-00.000002110000,  -0.42800,
,,,-00.000002100000,  -0.43000,
,,,-00.000002090000,  -0.42800,
,,,-00.000002080000,  -0.43000,
,,,-00.000002070000,  -0.43000,
,,,-00.000002060000,  -0.42800,
,,,-00.000002050000,  -0.43000,
,,,-00.000002040000,  -0.43000,
,,,-00.000002030000,  -0.43000,
,,,-00.000002020000,  -0.43000,
,,,-00.000002010000,  -0.43000,
,,,-00.000002000000,  -0.43200,
,,,-00.000001990000,  -0.43600,
,,,-00.000001980000,  -0.43400,
,,,-00.000001970000,  -0.43400,
,,,-00.000001960000,  -0.43400,
,,,-00.000001950000,  -0.43600,
,,,-00.000001940000,  -0.43600,
,,,-00.000001930000,  -0.43600,
,,,-00.000001920000,  -0.44000,
,,,-00.000001910000,  -0.44000,
,,,-00.000001900000,  -0.43600,
,,,-00.000001890000,  -0.44000,
,,,-00.000001880000,  -0.43800,
,,,-00.000001870000,  -0.43800,
,,,-00.000001860000,  -0.43800,
,,,-00.000001850000,  -0.43800,
,,,-00.000001840000,  -0.44000,
,,,-00.000001830000,  -0.44000,
,,,-00.000001820000,  -0.43800,
,,,-00.000001810000,  -0.44200,
,,,-00.000001800000,  -0.44200,
,,,-00.000001790000,  -0.44000,
,,,-00.000001780000,  -0.44000,
,,,-00.000001770000,  -0.44200,
,,,-00.000001760000,  -0.44400,
,,,-00.000001750000,  -0.44400,
,,,-00.000001740000,  -0.44200,
,,,-00.000001730000,  -0.44400,
,,,-00.000001720000,  -0.44400,
,,,-00.000001710000,  -0.44600,
,,,-00.000001700000,  -0.44600,
,,,-00.000001690000,  -0.44600,
,,,-00.000001680000,  -0.44400,
,,,-00.000001670000,  -0.44400,
,,,-00.000001660000,  -0.44800,
,,,-00.000001650000,  -0.44600,
,,,-00.000001640000,  -0.44400,
,,,-00.000001630000,  -0.44600,
,,,-00.000001620000,  -0.44600,
,,,-00.000001610000,  -0.44800,
,,,-00.000001600000,  -0.44800,
,,,-00.000001590000,  -0.44800,
,,,-00.000001580000,  -0.44800,
,,,-00.000001570000,  -0.45000,
,,,-00.000001560000,  -0.45000,
,,,-00.000001550000,  -0.44800,
,,,-00.000001540000,  -0.45000,
,,,-00.000001530000,  -0.44800,
,,,-00.000001520000,  -0.45000,
,,,-00.000001510000,  -0.45000,
,,,-00.000001500000,  -0.45000,
,,,-00.000001490000,  -0.45200,
,,,-00.000001480000,  -0.45200,
,,,-00.000001470000,  -0.45000,
,,,-00.000001460000,  -0.45400,
,,,-00.000001450000,  -0.45200,
,,,-00.000001440000,  -0.45000,
,,,-00.000001430000,  -0.45200,
,,,-00.000001420000,  -0.45200,
,,,-00.000001410000,  -0.45400,
,,,-00.000001400000,  -0.45200,
,,,-00.000001390000,  -0.45600,
,,,-00.000001380000,  -0.45400,
,,,-00.000001370000,  -0.45600,
,,,-00.000001360000,  -0.45800,
,,,-00.000001350000,  -0.45400,
,,,-00.000001340000,  -0.45200,
,,,-00.000001330000,  -0.45600,
,,,-00.000001320000,  -0.45800,
,,,-00.000001310000,  -0.45800,
,,,-00.000001300000,  -0.45600,
,,,-00.000001290000,  -0.45800,
,,,-00.000001280000,  -0.46000,
,,,-00.000001270000,  -0.45800,
,,,-00.000001260000,  -0.46000,
,,,-00.000001250000,  -0.45800,
,,,-00.000001240000,  -0.45800,
,,,-00.000001230000,  -0.45800,
,,,-00.000001220000,  -0.45800,
,,,-00.000001210000,  -0.46000,
,,,-00.000001200000,  -0.45800,
,,,-00.000001190000,  -0.45800,
,,,-00.000001180000,  -0.46000,
,,,-00.000001170000,  -0.46000,
,,,-00.000001160000,  -0.46000,
,,,-00.000001150000,  -0.46000,
,,,-00.000001140000,  -0.46200,
,,,-00.000001130000,  -0.46200,
,,,-00.000001120000,  -0.46000,
,,,-00.000001110000,  -0.46000,
,,,-00.000001100000,  -0.46000,
,,,-00.000001090000,  -0.46400,
,,,-00.000001080000,  -0.46400,
,,,-00.000001070000,  -0.46400,
,,,-00.000001060000,  -0.46400,
,,,-00.000001050000,  -0.46200,
,,,-00.000001040000,  -0.46400,
,,,-00.000001030000,  -0.46200,
,,,-00.000001020000,  -0.46400,
,,,-00.000001010000,  -0.46400,
,,,-00.000001000000,  -0.46600,
,,,-00.000000990000,  -0.46800,
,,,-00.000000980000,  -0.46600,
,,,-00.000000970000,  -0.46800,
,,,-00.000000960000,  -0.46200,
,,,-00.000000950000,  -0.46400,
,,,-00.000000940000,  -0.46600,
,,,-00.000000930000,  -0.46800,
,,,-00.000000920000,  -0.46400,
,,,-00.000000910000,  -0.46600,
,,,-00.000000900000,  -0.46600,
,,,-00.000000890000,  -0.46600,
,,,-00.000000880000,  -0.46400,
,,,-00.000000870000,  -0.46200,
,,,-00.000000860000,  -0.46400,
,,,-00.000000850000,  -0.46400,
,,,-00.000000840000,  -0.46800,
,,,-00.000000830000,  -0.47000,
,,,-00.000000820000,  -0.47200,
,,,-00.000000810000,  -0.47000,
,,,-00.000000800000,  -0.47200,
,,,-00.000000790000,  -0.47000,
,,,-00.000000780000,  -0.46800,
,,,-00.000000770000,  -0.47000,
,,,-00.000000760000,  -0.46800,
,,,-00.000000750000,  -0.47000,
,,,-00.000000740000,  -0.47200,
,,,-00.000000730000,  -0.47000,
,,,-00.000000720000,  -0.47200,
,,,-00.000000710000,  -0.46600,
,,,-00.000000700000,  -0.46800,
,,,-00.000000690000,  -0.46600,
,,,-00.000000680000,  -0.46800,
,,,-00.000000670000,  -0.47000,
,,,-00.000000660000,  -0.47000,
,,,-00.000000650000,  -0.47000,
,,,-00.000000640000,  -0.47000,
,,,-00.000000630000,  -0.47200,
,,,-00.000000620000,  -0.47200,
,,,-00.000000610000,  -0.47200,
,,,-00.000000600000,  -0.47600,
,,,-00.000000590000,  -0.47400,
,,,-00.000000580000,  -0.47200,
,,,-00.000000570000,  -0.47600,
,,,-00.000000560000,  -0.47600,
,,,-00.000000550000,  -0.47200,
,,,-00.000000540000,  -0.47200,
,,,-00.000000530000,  -0.47400,
,,,-00.000000520000,  -0.47400,
,,,-00.000000510000,  -0.47400,
,,,-00.000000500000,  -0.47600,
,,,-00.000000490000,  -0.47200,
,,,-00.000000480000,  -0.47200,
,,,-00.000000470000,  -0.47400,
,,,-00.000000460000,  -0.47400,
,,,-00.000000450000,  -0.47400,
,,,-00.000000440000,  -0.47600,
,,,-00.000000430000,  -0.47800,
,,,-00.000000420000,  -0.47600,
,,,-00.000000410000,  -0.47200,
,,,-00.000000400000,  -0.47400,
,,,-00.000000390000,  -0.47400,
,,,-00.000000380000,  -0.47400,
,,,-00.000000370000,  -0.47400,
,,,-00.000000360000,  -0.47600,
,,,-00.000000350000,  -0.47600,
,,,-00.000000340000,  -0.47600,
,,,-00.000000330000,  -0.47600,
,,,-00.000000320000,  -0.47600,
,,,-00.000000310000,  -0.47600,
,,,-00.000000300000,  -0.47600,
,,,-00.000000290000,  -0.47800,
,,,-00.000000280000,  -0.47800,
,,,-00.000000270000,  -0.48000,
,,,-00.000000260000,  -0.47800,
,,,-00.000000250000,  -0.47600,
,,,-00.000000240000,  -0.47800,
,,,-00.000000230000,  -0.47800,
,,,-00.000000220000,  -0.47800,
,,,-00.000000210000,  -0.47800,
,,,-00.000000200000,  -0.48000,
,,,-00.000000190000,  -0.48200,
,,,-00.000000180000,  -0.48000,
,,,-00.000000170000,  -0.47600,
,,,-00.000000160000,  -0.47600,
,,,-00.000000150000,  -0.48000,
,,,-00.000000140000,  -0.48200,
,,,-00.000000130000,  -0.47600,
,,,-00.000000120000,  -0.48000,
,,,-00.000000110000,  -0.48000,
,,,-00.000000100000,  -0.48000,
,,,-00.000000090000,  -0.47800,
,,,-00.000000080000,  -0.47800,
,,,-00.000000070000,  -0.47800,
,,,-00.000000060000,  -0.48200,
,,,-00.000000050000,  -0.48000,
,,,-00.000000040000,  -0.48000,
,,,-00.000000030000,  -0.48200,
,,,-00.000000020000,  -0.48200,
,,,-00.000000010000,  -0.48000,
,,,-00.000000000000,  -0.48200,
,,,00.000000010000,  -0.48000,
,,,00.000000020000,  -0.48200,
,,,00.000000030000,  -0.48000,
,,,00.000000040000,  -0.47800,
,,,00.000000050000,  -0.48200,
,,,00.000000060000,  -0.48400,
,,,00.000000070000,  -0.48200,
,,,00.000000080000,  -0.48200,
,,,00.000000090000,  -0.48200,
,,,00.000000100000,  -0.48200,
,,,00.000000110000,  -0.48200,
,,,00.000000120000,  -0.48200,
,,,00.000000130000,  -0.48200,
,,,00.000000140000,  -0.48200,
,,,00.000000150000,  -0.48000,
,,,00.000000160000,  -0.48200,
,,,00.000000170000,  -0.48200,
,,,00.000000180000,  -0.48200,
,,,00.000000190000,  -0.48200,
,,,00.000000200000,  -0.48400,
,,,00.000000210000,  -0.48200,
,,,00.000000220000,  -0.48600,
,,,00.000000230000,  -0.48200,
,,,00.000000240000,  -0.48400,
,,,00.000000250000,  -0.47800,
,,,00.000000260000,  -0.48600,
,,,00.000000270000,  -0.48400,
,,,00.000000280000,  -0.48400,
,,,00.000000290000,  -0.48600,
,,,00.000000300000,  -0.48400,
,,,00.000000310000,  -0.48400,
,,,00.000000320000,  -0.48800,
,,,00.000000330000,  -0.48400,
,,,00.000000340000,  -0.48400,
,,,00.000000350000,  -0.48600,
,,,00.000000360000,  -0.48400,
,,,00.000000370000,  -0.48400,
,,,00.000000380000,  -0.48600,
,,,00.000000390000,  -0.48400,
,,,00.000000400000,  -0.48600,
,,,00.000000410000,  -0.48400,
,,,00.000000420000,  -0.48600,
,,,00.000000430000,  -0.48400,
,,,00.000000440000,  -0.48400,
,,,00.000000450000,  -0.48400,
,,,00.000000460000,  -0.48400,
,,,00.000000470000,  -0.48600,
,,,00.000000480000,  -0.48600,
,,,00.000000490000,  -0.48600,
,,,00.000000500000,  -0.48600,
,,,00.000000510000,  -0.48400,
,,,00.000000520000,  -0.48600,
,,,00.000000530000,  -0.48600,
,,,00.000000540000,  -0.48800,
,,,00.000000550000,  -0.48600,
,,,00.000000560000,  -0.48800,
,,,00.000000570000,  -0.48800,
,,,00.000000580000,  -0.48600,
,,,00.000000590000,  -0.48800,
,,,00.000000600000,  -0.48800,
,,,00.000000610000,  -0.48600,
,,,00.000000620000,  -0.48800,
,,,00.000000630000,  -0.48600,
,,,00.000000640000,  -0.48800,
,,,00.000000650000,  -0.49000,
,,,00.000000660000,  -0.48800,
,,,00.000000670000,  -0.48800,
,,,00.000000680000,  -0.48800,
,,,00.000000690000,  -0.49000,
,,,00.000000700000,  -0.48800,
,,,00.000000710000,  -0.49000,
,,,00.000000720000,  -0.49000,
,,,00.000000730000,  -0.48800,
,,,00.000000740000,  -0.49000,
,,,00.000000750000,  -0.49000,
,,,00.000000760000,  -0.49000,
,,,00.000000770000,  -0.48800,
,,,00.000000780000,  -0.49000,
,,,00.000000790000,  -0.48800,
,,,00.000000800000,  -0.48800,
,,,00.000000810000,  -0.49000,
,,,00.000000820000,  -0.49000,
,,,00.000000830000,  -0.48600,
,,,00.000000840000,  -0.49000,
,,,00.000000850000,  -0.49000,
,,,00.000000860000,  -0.48800,
,,,00.000000870000,  -0.48600,
,,,00.000000880000,  -0.49000,
,,,00.000000890000,  -0.49000,
,,,00.000000900000,  -0.48800,
,,,00.000000910000,  -0.48800,
,,,00.000000920000,  -0.49000,
,,,00.000000930000,  -0.49000,
,,,00.000000940000,  -0.49000,
,,,00.000000950000,  -0.49000,
,,,00.000000960000,  -0.49000,
,,,00.000000970000,  -0.49000,
,,,00.000000980000,  -0.49000,
,,,00.000000990000,  -0.49000,
,,,00.000001000000,  -0.49200,
,,,00.000001010000,  -0.49000,
,,,00.000001020000,  -0.49200,
,,,00.000001030000,  -0.49000,
,,,00.000001040000,  -0.49200,
,,,00.000001050000,  -0.49200,
,,,00.000001060000,  -0.49000,
,,,00.000001070000,  -0.48800,
,,,00.000001080000,  -0.48800,
,,,00.000001090000,  -0.49200,
,,,00.000001100000,  -0.49000,
,,,00.000001110000,  -0.49200,
,,,00.000001120000,  -0.49200,
,,,00.000001130000,  -0.48800,
,,,00.000001140000,  -0.49400,
,,,00.000001150000,  -0.49200,
,,,00.000001160000,  -0.49000,
,,,00.000001170000,  -0.49000,
,,,00.000001180000,  -0.49000,
,,,00.000001190000,  -0.49200,
,,,00.000001200000,  -0.49200,
,,,00.000001210000,  -0.49200,
,,,00.000001220000,  -0.49400,
,,,00.000001230000,  -0.49200,
,,,00.000001240000,  -0.49200,
,,,00.000001250000,  -0.49000,
,,,00.000001260000,  -0.49200,
,,,00.000001270000,  -0.49000,
,,,00.000001280000,  -0.49200,
,,,00.000001290000,  -0.49400,
,,,00.000001300000,  -0.49400,
,,,00.000001310000,  -0.49200,
,,,00.000001320000,  -0.49400,
,,,00.000001330000,  -0.49200,
,,,00.000001340000,  -0.49400,
,,,00.000001350000,  -0.49400,
,,,00.000001360000,  -0.49400,
,,,00.000001370000,  -0.49200,
,,,00.000001380000,  -0.49200,
,,,00.000001390000,  -0.49200,
,,,00.000001400000,  -0.49200,
,,,00.000001410000,  -0.49400,
,,,00.000001420000,  -0.49400,
,,,00.000001430000,  -0.49200,
,,,00.000001440000,  -0.49400,
,,,00.000001450000,  -0.49400,
,,,00.000001460000,  -0.49200,
,,,00.000001470000,  -0.49400,
,,,00.000001480000,  -0.49400,
,,,00.000001490000,  -0.49200,
,,,00.000001500000,  -0.49600,
,,,00.000001510000,  -0.49400,
,,,00.000001520000,  -0.49200,
,,,00.000001530000,  -0.49200,
,,,00.000001540000,  -0.49600,
,,,00.000001550000,  -0.49200,
,,,00.000001560000,  -0.49600,
,,,00.000001570000,  -0.49400,
,,,00.000001580000,  -0.49200,
